{
  "id": "pf2-fr",
  "name": "pf2-fr",
  "title": "Français [Pathfinder 2] (fan made)",
  "description": "Ce module fournit une traduction (non officielle) du système et des compendiums Pathfinder 2e. Elle est réalisée par des fans et utilise le module Babele.<p><b>- Rejoignez la communauté Discord FR :</b><a href=\"https://discord.gg/pPSDNJk\"> https://discord.gg/pPSDNJk </a></p>",
  "version": "VERSION",
  "compatibility": {
	"minimum": "10",
	"verified": "10.291"
  },
  "system": [
	"pf2e"
  ],
  "relationships": {
	"systems": [{
	  "id": "pf2e"
	}],
	"requires": [
	  {
		"id": "babele"
	  },
	  {
		"id": "lib-wrapper"
	  }
	]
  },
  "authors": [
	{
	  "name": "Sven Werlen (module code)"
	},
	{
	  "name": "Rectulo (translator&code)",
	  "discord": "rectulo#4697"
	},
	{
	  "name": "Njini (translator)",
	  "discord": "Njini#5521"
	},
	{
	  "name": "Dwim (translator&code)",
	  "discord": "Dwim#6417"
	}
  ],
  "languages": [
	{
	  "lang": "fr",
	  "name": "French (Français)",
	  "path": "lang/fr.json"
	},
	{
	  "lang": "fr",
	  "name": "Rules Elements",
	  "path": "lang/re/fr.json"
	}
  ],
  "scripts": [
	"pf2fr.js"
  ],
  "url": "https://gitlab.com/pathfinder-fr/foundryvtt-pathfinder2-fr",
  "manifest": "https://gitlab.com/pathfinder-fr/foundryvtt-pathfinder2-fr/-/raw/master/module.json",
  "download": "https://gitlab.com/pathfinder-fr/foundryvtt-pathfinder2-fr/-/archive/v-VERSION/foundryvtt-pathfinder2-fr-v-VERSION.zip",
  "bugs": "https://gitlab.com/pathfinder-fr/foundryvtt-pathfinder2-fr/-/issues",
  "readme": "https://gitlab.com/pathfinder-fr/foundryvtt-pathfinder2-fr/-/blob/master/README.md"
}
