{
    "label": "Macros des actions",
    "reference": [],
    "entries": {
        "Lie: Deception": {
            "name": "Lie: Deception",
            "description": ""
        },
        "Perform - Play percussion instrument: Performance": {
            "name": "Perform - Play percussion instrument: Performance",
            "description": ""
        },
        "Steal: Thievery": {
            "name": "Steal: Thievery",
            "description": ""
        },
        "Pick a Lock: Thievery": {
            "name": "Pick a Lock: Thievery",
            "description": ""
        },
        "Decipher Writing: Religion": {
            "name": "Decipher Writing: Religion",
            "description": ""
        },
        "Subsist: Survival": {
            "name": "Subsist: Survival",
            "description": ""
        },
        "Coerce: Intimidation": {
            "name": "Coerce: Intimidation",
            "description": ""
        },
        "Bon Mot: Diplomacy": {
            "name": "Bon Mot: Diplomacy",
            "description": ""
        },
        "Craft: Crafting": {
            "name": "Craft: Crafting",
            "description": ""
        },
        "Balance: Acrobatics": {
            "name": "Balance: Acrobatics",
            "description": ""
        },
        "Sense Direction: Survival": {
            "name": "Sense Direction: Survival",
            "description": ""
        },
        "Gather Information: Diplomacy": {
            "name": "Gather Information: Diplomacy",
            "description": ""
        },
        "Long Jump: Athletics": {
            "name": "Long Jump: Athletics",
            "description": ""
        },
        "Make an Impression: Diplomacy": {
            "name": "Make an Impression: Diplomacy",
            "description": ""
        },
        "Command an Animal: Nature": {
            "name": "Command an Animal: Nature",
            "description": ""
        },
        "Perform - Play string instrument: Performance": {
            "name": "Perform - Play string instrument: Performance",
            "description": ""
        },
        "Impersonate: Deception": {
            "name": "Impersonate: Deception",
            "description": ""
        },
        "Perform - Play keyboard instrument: Performance": {
            "name": "Perform - Play keyboard instrument: Performance",
            "description": ""
        },
        "Encouraging Words": {
            "name": "Encouraging Words",
            "description": ""
        },
        "Shove: Athletics": {
            "name": "Shove: Athletics",
            "description": ""
        },
        "Perform - Dance: Performance": {
            "name": "Perform - Dance: Performance",
            "description": ""
        },
        "Perform - Comedy: Performance": {
            "name": "Perform - Comedy: Performance",
            "description": ""
        },
        "Palm an Object: Thievery": {
            "name": "Palm an Object: Thievery",
            "description": ""
        },
        "Decipher Writing: Society": {
            "name": "Decipher Writing: Society",
            "description": ""
        },
        "Treat Poison: Medicine": {
            "name": "Treat Poison: Medicine",
            "description": ""
        },
        "Tamper: Crafting": {
            "name": "Tamper: Crafting",
            "description": ""
        },
        "Perform - Play wind instrument: Performance": {
            "name": "Perform - Play wind instrument: Performance",
            "description": ""
        },
        "Perform - Acting: Performance": {
            "name": "Perform - Acting: Performance",
            "description": ""
        },
        "Request: Diplomacy": {
            "name": "Request: Diplomacy",
            "description": ""
        },
        "Create a Diversion - Trick: Deception": {
            "name": "Create a Diversion - Trick: Deception",
            "description": ""
        },
        "Create a Diversion - Distracting Words: Deception": {
            "name": "Create a Diversion - Distracting Words: Deception",
            "description": ""
        },
        "Maneuver in Flight: Acrobatics": {
            "name": "Maneuver in Flight: Acrobatics",
            "description": ""
        },
        "High Jump: Athletics": {
            "name": "High Jump: Athletics",
            "description": ""
        },
        "Sense Motive: Perception": {
            "name": "Sense Motive: Perception",
            "description": ""
        },
        "Steel Your Resolve": {
            "name": "Steel Your Resolve",
            "description": ""
        },
        "Climb: Athletics": {
            "name": "Climb: Athletics",
            "description": ""
        },
        "Track: Survival": {
            "name": "Track: Survival",
            "description": ""
        },
        "Trip: Athletics": {
            "name": "Trip: Athletics",
            "description": ""
        },
        "Repair: Crafting": {
            "name": "Repair: Crafting",
            "description": ""
        },
        "Conceal an Object: Stealth": {
            "name": "Conceal an Object: Stealth",
            "description": ""
        },
        "Perform - Oratory: Performance": {
            "name": "Perform - Oratory: Performance",
            "description": ""
        },
        "Athletics: Arcane Slam": {
            "name": "Athletics: Arcane Slam",
            "description": ""
        },
        "Swim: Athletics": {
            "name": "Swim: Athletics",
            "description": ""
        },
        "Sneak: Stealth": {
            "name": "Sneak: Stealth",
            "description": ""
        },
        "Seek: Perception": {
            "name": "Seek: Perception",
            "description": ""
        },
        "Treat Disease: Medicine": {
            "name": "Treat Disease: Medicine",
            "description": ""
        },
        "Exploration: Avoid Notice": {
            "name": "Exploration: Avoid Notice",
            "description": ""
        },
        "Subsist: Society": {
            "name": "Subsist: Society",
            "description": ""
        },
        "Whirling Throw: Athletics": {
            "name": "Whirling Throw: Athletics",
            "description": ""
        },
        "Decipher Writing: Arcana": {
            "name": "Decipher Writing: Arcana",
            "description": ""
        },
        "Disable Device: Thievery": {
            "name": "Disable Device: Thievery",
            "description": ""
        },
        "Squeeze: Acrobatics": {
            "name": "Squeeze: Acrobatics",
            "description": ""
        },
        "Disarm: Athletics": {
            "name": "Disarm: Athletics",
            "description": ""
        },
        "Raise a Shield": {
            "name": "Raise a Shield",
            "description": ""
        },
        "Feint: Deception": {
            "name": "Feint: Deception",
            "description": ""
        },
        "Force Open: Athletics": {
            "name": "Force Open: Athletics",
            "description": ""
        },
        "Demoralize: Intimidation": {
            "name": "Demoralize: Intimidation",
            "description": ""
        },
        "Decipher Writing: Occultism": {
            "name": "Decipher Writing: Occultism",
            "description": ""
        },
        "Hide: Stealth": {
            "name": "Hide: Stealth",
            "description": ""
        },
        "Tumble Through: Acrobatics": {
            "name": "Tumble Through: Acrobatics",
            "description": ""
        },
        "Create a Diversion - Gesture: Deception": {
            "name": "Create a Diversion - Gesture: Deception",
            "description": ""
        },
        "Perform - Singing: Performance": {
            "name": "Perform - Singing: Performance",
            "description": ""
        },
        "Grapple: Athletics": {
            "name": "Grapple: Athletics",
            "description": ""
        }
    },
    "mapping": {}
}