{
    "label": "Ascendances et classes (Animal Companions)",
    "reference": [],
    "entries": {
        "Dromaeosaur": {
            "name": "Dromaeosaur",
            "description": "<p>Votre compagnon est un droméosaure (aussi appelé un raptor), tel qu'un vélociraptor ou un déinonychus.</p>\n<p><strong>Taille</strong> Petite</p>\n<p><strong>Corps-à-corps</strong> <span class=\"pf2-icon\">1</span> mâchoires (finesse), <strong>Dégâts</strong> 1d8 perforants</p>\n<p><strong>Corps-à-corps</strong> <span class=\"pf2-icon\">1</span> serre (agile, finesse), <strong>Dégâts</strong> 1d6 tranchants</p>\n<p><strong>For</strong> +2, <strong>Dex</strong> +3, <strong>Con</strong> +2, <strong>Int</strong> -4, <strong>Sag</strong> +1, <strong>Cha</strong> +0</p>\n<p><strong>Points de Vie</strong> 6</p>\n<p><strong>Compétence</strong> Discrétion</p>\n<p><strong>Sens</strong> vision nocturne, odorat (imprécis) 9 m</p>\n<p><strong>Vitesse</strong> 15 m</p>\n<p><strong>Avantage de soutien</strong> Votre raptor s'élance constamment pour se mettre en position de tenaille. Jusqu'au début de votre prochain tour, il compte comme étant dans sa case ou dans une case vide de votre choix dans un rayon de 3 mètres lorsqu'il s'agit de déterminer si vous et votre compagnon prenez en tenaille ; vous pouvez choisir une case différente pour chacune de vos attaques).</p>\n<p><strong>Manœuvre avancée</strong> @Compendium[pf2e-animal-companions.AC-Advanced-Maneuvers.ClUiCoBn3lHBBK5c]{Attaque éclair}</p>"
        },
        "Bird": {
            "name": "Bird",
            "description": "<p>Votre compagnon est un oiseau de proie tel qu'un aigle, un faucon ou une chouette.</p>\n<p><strong>Taille</strong> Petite</p>\n<p><strong>Corps-à-corps</strong> <span class=\"pf2-icon\">1</span> bec (finesse), <strong>Dégâts</strong> 1d6 perforants</p>\n<p><strong>Corps-à-corps</strong> <span class=\"pf2-icon\">1</span> serres (agile, finesse), <strong>Dégâts</strong> 1d4 tranchants</p>\n<p><strong>For</strong> +2, <strong>Dex</strong> +3, <strong>Con</strong> +1, <strong>Int</strong> -4, <strong>Sag</strong> +2, <strong>Cha</strong> +0</p>\n<p><strong>Points de Vie</strong> 4</p>\n<p><strong>Compétence</strong> Discrétion</p>\n<p><strong>Sens</strong> vision nocturne</p>\n<p><strong>Vitesse</strong> 3 m, vol 18 m</p>\n<p><strong>Avantage de soutien</strong> L'oiseau de proie picore les yeux de vos ennemis lorsque vous créez une ouverture. Jusqu'au début de votre prochain tour, vos Frappes qui blessent une créature que votre oiseau de proie menace inflige aussi [[/r 1d4[bleed]]]{1d4 dégâts de saignement} et la cible est @UUID[Compendium.pf2e.conditionitems.TkIyaNPgTZFBCCuh]{Éblouie} jusqu'à ce qu'il retire les dégâts de saignement. Si votre oiseau est agile ou sauvage, les dégâts de saignement passent à 2d4.</p>\n<p><strong>Manœuvre avancée</strong> @Compendium[pf2e-animal-companions.AC-Advanced-Maneuvers.X4VjMfVVAjZjwcrT]{Attaque en vol}</p>"
        },
        "Wolf": {
            "name": "Wolf",
            "description": "<p>Votre compagnon est un loup ou un autre canidé tel qu'un chien.</p>\n<p><strong>Taille</strong> Petite</p>\n<p><strong>Corps-à-corps</strong> <span class=\"pf2-icon\">1</span> mâchoires (finesse), <strong>Dégâts</strong> 1d8 perforants</p>\n<p><strong>For</strong> +2, <strong>Dex</strong> +3, <strong>Con</strong> +2, <strong>Int</strong> -4, <strong>Sag</strong> +1, <strong>Cha</strong> +0</p>\n<p><strong>Points de Vie</strong> 6</p>\n<p><strong>Compétence</strong> Survie</p>\n<p><strong>Sens</strong> vision nocturne, odorat (imprécis) 9 m</p>\n<p><strong>Vitesse</strong> 12 m</p>\n<p><strong>Avantage de soutien</strong> Votre loup déchire les tendons à chaque ouverture. Jusqu'au début de votre prochain tour, vos frappes qui blessent les créatures à portée de votre loup infligent à la cible une pénalité de statut de -1,5 m à ses Vitesses pendant 1 minute (-3 m en cas de coup critique).</p>\n<p><strong>Manœuvre avancée</strong> @Compendium[pf2e-animal-companions.AC-Advanced-Maneuvers.xssFjTXqGlsaddvl]{Renversement}</p>"
        },
        "Shadow Hound": {
            "name": "Shadow Hound",
            "description": "<p><strong>Accès</strong> Vous êtes un incantateur de l'ombre.</p>\n<hr />\n<p>Votre compagnon est une créature canine créature liée aux habitants du Plan de l'Ombre connus sous le nom de mâtins de l'ombre.</p>\n<p><strong>Taille</strong> Petite</p>\n<p><strong>Corps-à-corps</strong> <span class=\"pf2-icon\">1</span> mâchoires (finesse), <strong>Dégâts</strong> 1d8 perforants</p>\n<p><strong>For </strong>+2, <strong>Dex </strong>+3, <strong>Con </strong>+1, <strong>Int </strong>-4, <strong>Sag </strong>+1, <strong>Cha </strong>+1</p>\n<p><strong>Points de Vie</strong> 4</p>\n<p><strong>Compétence</strong> Intimidation</p>\n<p><strong>Sens</strong> vision dans le noir, odorat (imprécis) 9 m</p>\n<p><strong>Vitesse</strong> 9 m</p>\n<p><strong>Avantage de soutien</strong> Votre molosse d'ombre enveloppe vos ennemis dans l'ombre lorsque vous laissez une ouverture. Jusqu'au début de votre prochain tour, lorsque vous infligez des dégâts à une créature avec une Frappe et que cette créature se trouve à portée de votre molosse d'ombre, vous et votre molosse d'ombre devenez tous les deux @UUID[Compendium.pf2e.conditionitems.DmAIPqOBomZ7H95W]{Masqué} pour la créature jusqu'à la fin de votre prochain tour.</p>\n<p><strong>Manœuvre avancée</strong> @Compendium[pf2e-animal-companions.AC-Advanced-Maneuvers.EvuMVR9ut9wIHOtq]{Plainte}</p>"
        },
        "Legchair": {
            "name": "Legchair",
            "description": "<p>Votre compagnon est une étrange créature, ressemblant à une chaise avec des pattes bestiales.</p>\n<p><strong>Taille</strong> Moyenne ou Grande</p>\n<p><strong>Corps-à-corps</strong> <span class=\"pf2-icon\">1</span> sabot (agile), <strong>Dégâts</strong> 1d6 contondants</p>\n<p><strong>For</strong> +3, <strong>Dex</strong> +2, <strong>Con</strong> +2, <strong>Int</strong> -4, <strong>Sag</strong> +1, <strong>Cha</strong> +0</p>\n<p><strong>Points de Vie</strong> 8</p>\n<p><strong>Compétence</strong> Discrétion</p>\n<p><strong>Sens</strong> vision nocturne, odorat (imprécis) 9 m</p>\n<p><strong>Vitesse</strong> 12 m</p>\n<p><strong>Spécial</strong> monture</p>\n<p><strong>Avantage de soutien</strong> Votre chaise sur pattes déplace ses membres dans le passage des attaques de l'ennemi. Vous obtenez un abri inférieur de la part de votre chaise sur pattes contre toutes les attaques, pas juste celles pour lesquelles la chaise sur pattes serait dans le passage.</p>\n<p><strong>Manœuvre avancée</strong> @Compendium[pf2e-animal-companions.AC-Advanced-Maneuvers.lrchn6ROZcuKCg3C]{Retrait précautionneux}</p>"
        },
        "Fiery Leopard": {
            "name": "Fiery Leopard",
            "description": "<p><strong>Taille</strong> Petit</p>\n<p><strong>Corps-à-corps</strong> <span class=\"pf2-icon\">1</span> mâchoires (finesse), <strong>Dégâts</strong> 1d6 perforants</p>\n<p><strong>Corps-à-corps</strong> <span class=\"pf2-icon\">1</span> griffe (agile, finesse), <strong>Dégâts</strong> 1d4 tranchants</p>\n<p><strong>For</strong> +2, <strong>Dex</strong> +3, <strong>Con</strong> +1, <strong>Int</strong> -4, <strong>Sag</strong> +2, <strong>Cha</strong> +0</p>\n<p><strong>Points de Vie</strong> 4</p>\n<p><strong>Compétence</strong> Discrétion</p>\n<p><strong>Sens</strong> vision nocturne, odorat (imprécis) 9 m</p>\n<p><strong>Vitesse</strong> 10,5 m</p>\n<p><strong>Spécial</strong> Votre félin inflige 1d4 dégâts de précision supplémentaires contre les cibles Prises au dépourvu.</p>\n<p><strong>Avantage de soutien</strong> Votre félin déséquilibre vos ennemis lorsque vous créez une ouverture. Jusqu'au début de votre prochain tour, vos Frappes qui infligent des dégâts à une créature que votre félin menace rendent la cible @UUID[Compendium.pf2e.conditionitems.AJh5ex99aV6VTggg]{Prises au dépourvu} jusqu'à la fin de votre prochain tour.</p>\n<p><strong>Manœuvre avancée</strong> @Compendium[pf2e-animal-companions.AC-Advanced-Maneuvers.U0J8J5ukmqnOskE8]{Bond du félin}</p>\n<p><strong>Immunité</strong> feu <strong>Faiblesse</strong> froid 5</p>\n<p><strong>Attaques enflammées</strong> (feu) Les attaques naturelles du léopard brûlant infligent 1 dégât de feu (en plus des dégâts infligés aux cibles prises au dépourvu). Ces dégâts passent à 1d4 lorsque le léopard brûlant devient un compagnon animal agile ou sauvage.</p>\n<p><strong>Fourrure brûlante</strong> (feu) Les créatures qui débutent leur tour agrippées par le léopard brûlant subissent 1d4 dégâts de feu. Quiconque essaie d'empoigner le léopard brûlant subit 1d4 dégâts de feu à chaque tentative.</p>\n<p><strong>Lueur ardente</strong> Le léopard brûlant émet une lumière faible dans un rayon de 3 m qui lui donne une pénalité de circonstances de -2 sur les tests de Discrétion la nuit ou dans un environnement sombre.</p>"
        },
        "Shark": {
            "name": "Shark",
            "description": "<p>Votre compagnon est un squale de n'importe quel type tel qu'un requin marteau, un grand requin blanc ou un requin bleu.</p>\n<p><strong>Taille</strong> Petite</p>\n<p><strong>Corps-à-corps</strong> <span class=\"pf2-icon\">1</span> mâchoires, <strong>Dégâts</strong> 1d8 perforants</p>\n<p><strong>For</strong> +3, <strong>Dex</strong> +2, <strong>Con</strong> +2, <strong>Int</strong> -4, <strong>Sag</strong> +1, <strong>Cha</strong> +0</p>\n<p><strong>Points de Vie</strong> 6</p>\n<p><strong>Compétence</strong> Discrétion</p>\n<p><strong>Sens</strong> perception du sang, odorat (imprécis) 15 m</p>\n<p><strong>Vitesse</strong> nage 12 m</p>\n<p><strong>Spécial</strong> Le squale a le trait aquatique. sa perception du sang lui permet de sentir le sang dans l'eau à 1,5 km de distance.</p>\n<p><strong>Avantage de soutien</strong> Lorsque votre squale perçoit le sang, il déchire vos ennemis. Jusqu'au début de votre prochain tour, chaque fois que vous touchez une créature à la portée du requin avec une Frappe et que vous lui infligez des dégâts tranchants ou perforants, la créature subit [[/r {1d8}[slashing]]]{1d8 dégâts tranchants} de la part du requin. Si votre requin est agile ou sauvage, les dégâts tranchants passent à [[/r 2d8]]{2d8}.</p>\n<p><strong>Manœuvre avancée</strong> @Compendium[pf2e-animal-companions.AC-Advanced-Maneuvers.F98ajoIakyOPEuwj]{Déchiqueter}</p>"
        },
        "Ghost": {
            "name": "Ghost",
            "description": "<p>Votre compagnon est un fantôme lié à un objet en votre possession. Grâce à ce lien, votre compagnon fantôme peut se déplacer au-delà du périmètre d'une seule habitation mais il est plus facile à perturber que la plupart des créatures intangibles. Un compagnon fantôme peut être formé à partir d'une créature humanoïde, animale ou autre. Le fantôme n'est pas intelligent et est incapable de parler avec les vivants.</p>\n<p><strong>Taille</strong> Petite ou Moyenne</p>\n<p><strong>Corps-à-corps</strong> <span class=\"pf2-icon\">1</span> contact fantomatique (finesse, magique), <strong>Dégâts</strong> 1d8 négatifs (n'appliquent pas le modificateur de Force du fantôme)</p>\n<p><strong>For</strong> -5, <strong>Dex</strong> +3, <strong>Con</strong> +0, <strong>Int</strong> -4, <strong>Sag</strong> +1, <strong>Cha</strong> +2</p>\n<p><strong>Points de vie</strong> 4</p>\n<p><strong>Compétence</strong> Discrétion</p>\n<p><strong>Sens</strong> vision dans le noir</p>\n<p><strong>Vitesse</strong> vol 6 m</p>\n<p><strong>Spécial</strong> @Compendium[pf2e-animal-companions.AC-Features.BjE6osOFlAishRbh]{Intangibilité ancrée}</p>\n<p><strong>Avantage de soutien</strong> Votre fantôme effraie vos ennemis et leur fait peur lorsque vous les attaquez. Jusqu'au début de votre prochain tour, si vous touchez et infligez des dégâts à une créature à portée de votre fantôme, cette dernière devient @UUID[Compendium.pf2e.conditionitems.Frightened]{Effrayée 1}.</p>\n<p><strong>Manœuvre avancée</strong> @Compendium[pf2e-animal-companions.AC-Advanced-Maneuvers.NMaMTiDB40L5O41S]{Assaut télékinésique}</p>"
        },
        "Crocodile": {
            "name": "Crocodile",
            "description": "<p>Votre compagnon est un crocodile ou un reptile crocodilien similaire tel qu'un alligator ouun caïman.</p>\n<p><strong>Taille</strong> Petite</p>\n<p><strong>Corps-à-corps</strong> <span class=\"pf2-icon\">1</span> mâchoires, <strong>Dégâts</strong> 1d8 perforants</p>\n<p><strong>Corps-à-corps</strong> <span class=\"pf2-icon\">1</span> queue (agile), <strong>Dégâts</strong> 1d6 contondants</p>\n<p><strong>For</strong> +3, <strong>Dex</strong> +2, <strong>Con</strong> +2, <strong>Int</strong> -4, <strong>Sag</strong> +1, <strong>Cha</strong> +0</p>\n<p><strong>Points de Vie</strong> 6</p>\n<p><strong>Compétence</strong> Discrétion</p>\n<p><strong>Sens</strong> vision nocturne</p>\n<p><strong>Vitesse</strong> 6 m, natation 7,5 m</p>\n<p><strong>Spécial</strong> Le crocodile peut retenir sa respiration pendant 2 heures.</p>\n<p><strong>Avantage de soutien</strong> Votre crocodile serre ses mâchoires sur votre ennemi, refusant de le lâcher. Jusqu'au début de votre prochain tour, si votre Frappe blesse une créature à portée de votre crocodile, ce dernier peut s'accrocher à cette créature. Pendant qu'il est ainsi attaché, le crocodile peut se déplacer avec la cible à chaque fois que celle-ci se déplace jusqu'à la fin de votre prochain tour. Votre crocodile ne peut s'accrocher qu'à une seule créature de cette façon et il doit relâcher la créature pour faire une Frappe de mâchoire. Si la cible est plus petite que le crocodile, elle subit une pénalité de circonstances de -3 m à ses vitesse de déplacement et ne peuvent Voler tant que le crocodile est attaché.</p>\n<p><strong>Manœuvre avancée</strong> @Compendium[pf2e-animal-companions.AC-Advanced-Maneuvers.ttJ1CanrAuehoSV8]{Roulade mortelle}</p>"
        },
        "Undead Hand": {
            "name": "Undead Hand",
            "description": "<p>Votre compagnon est une main d'humanoïde de taille grande squelettique ou de chair, similaire à une main rampante géante.</p>\n<p><strong>Taille</strong> Petite</p>\n<p><strong>Corps-à-corps</strong> <span class=\"pf2-icon\">1</span> griffe (agile, finesse), <strong>Dégâts</strong> 1d6 tranchants</p>\n<p><strong>For</strong> +2, <strong>Dex</strong> +2, <strong>Con</strong> +1, <strong>Int</strong> -5, <strong>Sag</strong> +1, <strong>Cha</strong> +0</p>\n<p><strong>Points de vie</strong> 4</p>\n<p><strong>Compétence</strong> aucune (dénuée d'intelligence)</p>\n<p><strong>Sens</strong> Vision dans le noir</p>\n<p><strong>Vitesse</strong> 6 m, escalade 6 m</p>\n<p><strong>Spécial</strong> dénuée d'intelligence</p>\n<p><strong>Avantage de soutien</strong> La main frappe vicieusement les ennemis que vous attaquez. Jusqu'au début de votre prochain tour, chaque fois que vous touchez une créature à portée de la main avec une Frappe, la créature subit [[/r {1d6}[bludgeoning]]]{1d6 dégâts contondants} de la main. Si votre main est agile ou sauvage, les dégâts contondants passent à [[/r 2d6[bludgeoning]]]{2d6}.</p>\n<p><strong>Manœuvre avancée</strong> @Compendium[pf2e-animal-companions.AC-Advanced-Maneuvers.MQv67R7KBIrJkshN]{Gorge serrée}</p>"
        },
        "Capybara": {
            "name": "Capybara",
            "description": "<p>Votre compagnon animal est un capybara, un rongeur géant courant dans les forêts d'Arcadie.</p>\n<p><strong>Taille</strong> Petite</p>\n<p><strong>Corps-à-corps</strong> <span class=\"pf2-icon\">1</span> tête (agile), <strong>Dégâts</strong> 1d6 contondants</p>\n<p><strong>For</strong> +2, <strong>Dex</strong> +2, <strong>Con</strong> +2, <strong>Int</strong> -4, <strong>Sag</strong> +2, <strong>Cha</strong> +0</p>\n<p><strong>Points de Vie</strong> 6</p>\n<p><strong>Compétence</strong> Survie</p>\n<p><strong>Sens</strong> vision nocturne, odorat (imprécis) 9 m</p>\n<p><strong>Vitesse</strong> 9 m, natation 4,5 m</p>\n<p><strong>Avantage de soutien</strong> Votre capybara vous assiste dans la bataille. Vous obtenez un bonus de circonstances de +1 à votre prochain jet d'attaque pour Frapper un ennemi à portée de votre capybara. Le bonus dure jusqu'à la première fois que vous l'utilisez ou jusqu'au début de votre prochain tour, ce qui se produit en premier.</p>\n<p><strong>Manœuvre avancée</strong> @Compendium[pf2e-animal-companions.AC-Advanced-Maneuvers.cpMkN79PdNci3nGp]{Aspersion distrayante}</p>"
        },
        "Ulgrem-Lurann": {
            "name": "Ulgrem-Lurann",
            "description": "<p>Votre compagnon est l'un des rares membres survivants d'une espèce autrefois éteinte, issu de la dernière ponte de Ulgrem-Axaan. Comme il est très jeune, son intelligence ne s'est pas encore développée, mais un jour, il deviendra une créature hautement intelligente. Un Ulgrem-Lurann a le trait bête au lieu du trait animal mais fonctionne autrement de la même manière qu'un compagnon animal.</p>\n<p><strong>Taille</strong> Medium</p>\n<p><strong>Corps-à-corps</strong> <span class=\"pf2-icon\">1</span> mâchoires, <strong>Dégâts</strong> 1d8 perforants</p>\n<p><strong>Corps-à-corps</strong> <span class=\"pf2-icon\">1</span> queue, <strong>Dégâts</strong> 1d6 contondants</p>\n<p><strong>For</strong> +3, <strong>Dex</strong> +2, <strong>Con</strong> +2, <strong>Int</strong> -4, <strong>Sag</strong> 0, <strong>Cha</strong> +1</p>\n<p><strong>Points de Vie</strong> 6</p>\n<p><strong>Compétence</strong> Intimidation</p>\n<p><strong>Sens</strong> vision dans le noir</p>\n<p><strong>Vitesse</strong> 6 m, natation 7,5 m</p>\n<p><strong>Spécial</strong> L'Ulgrem-Lurann possède le trait amphibie.</p>\n<p><strong>Avantage de soutien</strong> L'Ulgrem-Lurann saisit votre ennemi et l'électrocute. Jusqu'au début de votre prochain tour, chaque fois que vous touchez une créature à portée de l'Ulgrem-Lurann avec une Frappe, celle-ci subit [[/r {1d4}[piercing]]]{1d4 dégâts perforants} et [[/r {1d4}[electricity]]]{1d4 dégâts d'électricité} supplémentaires de la part de l'Ulgrem-Lurann. Si l'Ulgrem-Lurann est agile ou sauvage, les dégâts perforants et d'électricité passent chaun à [[/r 2d4]]{2d4}.</p>\n<p><strong>Manœuvre avancée</strong> @Compendium[pf2e-animal-companions.AC-Advanced-Maneuvers.Upr7u0KhPAIMOqXv]{Arracher et électrocuter}</p>"
        },
        "Rhinoceros": {
            "name": "Rhinoceros",
            "description": "<p>Votre compagnon est un rhinocéros ou un rhinocéros laineux.</p>\n<p><strong>Taille</strong> Grande</p>\n<p><strong>Corps-à-corps</strong> <span class=\"pf2-icon\">1</span> corne, <strong>Dégâts</strong> 1d8 perforants</p>\n<p><strong>For</strong> +3, <strong>Dex</strong> +1, <strong>Con</strong> +3, <strong>Int</strong> -4, <strong>Sag</strong> +1, <strong>Cha</strong> +0</p>\n<p><strong>Points de vie</strong> 8</p>\n<p><strong>Compétence</strong> Survie</p>\n<p><strong>Sens</strong> odorat (imprécis, 9 m)</p>\n<p><strong>Vitesse</strong> 9 m</p>\n<p><strong>Spécial</strong> monture</p>\n<p><strong>Avantage de soutien</strong> Votre rhinocéros balance sa lourde tête pour déséquilibrer votre ennemi. La première créature à portée de votre rhinocéros que vous touchez et à laquelle vous infligez des dégâts avant le début de votre prochain tour devient @UUID[Compendium.pf2e.conditionitems.i3OJZU2nk64Df3xm]{Maladroite 1} jusqu'à la fin de votre prochain tour.</p>\n<p><strong>Manœuvre avancée</strong> @Compendium[pf2e-animal-companions.AC-Advanced-Maneuvers.JMHoCFb886K6dT1n]{Charge du rhinocéros}</p>"
        },
        "Snake": {
            "name": "Snake",
            "description": "<p>Votre compagnon est un serpent constricteur, tel qu'un boa ou un python.</p>\n<p><strong>Taille</strong> Petite</p>\n<p><strong>Corps-à-corps</strong> <span class=\"pf2-icon\">1</span> mâchoires (finesse), <strong>Dégâts</strong> 1d8 perforants</p>\n<p><strong>For</strong> +3, <strong>Dex</strong> +3, <strong>Con</strong> +1, <strong>Int</strong> -4, <strong>Sag</strong> +1, <strong>Cha</strong> +0</p>\n<p><strong>Points de Vie</strong> 6</p>\n<p><strong>Compétence</strong> Discrétion</p>\n<p><strong>Sens</strong> vision nocturne, odorat (imprécis) 9 m</p>\n<p><strong>Vitesse</strong> 6 m, escalader 6 m, nager 6 m</p>\n<p><strong>Avantage de soutien</strong> Votre serpent retient vos ennemis avec ses anneaux, interférant avec les réactions. Jusqu'au début de votre prochain tour, toute créature que votre serpent menace ne peut utiliser les réactions déclenchées par vos actions, sauf si son niveau est supérieur au vôtre.</p>\n<p><strong>Manœuvre avancée</strong> @Compendium[pf2e-animal-companions.AC-Advanced-Maneuvers.kKW68gi1FNJlNSOp]{Constriction}</p>"
        },
        "Ape": {
            "name": "Ape",
            "description": "<p>Votre compagnon est un singe ou un autre primate.</p>\n<p><strong>Taille</strong> Petite</p>\n<p><strong>Corps-à-corps</strong> <span class=\"pf2-icon\">1</span> poing, <strong>Dégâts</strong> 1d8 contondants</p>\n<p><strong>For</strong> +3, <strong>Dex</strong> +1, <strong>Con</strong> +2, <strong>Int</strong> -4, <strong>Sag</strong> +2, <strong>Cha</strong> +0</p>\n<p><strong>Points de Vie</strong> 8</p>\n<p><strong>Compétence</strong> Intimidation</p>\n<p><strong>Sens</strong> vision nocturne</p>\n<p><strong>Vitesse</strong> 7,5 m, escalade 7,5 m</p>\n<p><strong>Avantage de soutien</strong> Votre singe menace vos ennemis avec des grognements menaçants. Jusqu'au début de votre prochain tour, si vous touchez et infligez des dégâts à une créature à portée de votre singe, celle-ci devient @UUID[Compendium.pf2e.conditionitems.TBSHQspnbcqxsmjL]{Effrayée 1}.</p>\n<p><strong>Manœuvre avancée</strong> @Compendium[pf2e-animal-companions.AC-Advanced-Maneuvers.0WtqP7Wei3AxHh5M]{Démonstration effrayante}</p>"
        },
        "Vampiric Animal": {
            "name": "Vampiric Animal",
            "description": "<p>Votre compagnon est un loup, une belette, un renard ou un autre prédateur doté de crocs et assoiffé de sang comme un vampire. Ils servent souvent les vampires qui partagent volontiers leur sang pour lier l'animal à leurs caprices vampiriques.</p>\n<p><strong>Taille</strong> Petite ou Moyenne</p>\n<p><strong>Corps-à-corps</strong> <span class=\"pf2-icon\">1</span> mâchoires (finesse), <strong>Dégâts</strong> 1d8 perforants</p>\n<p><strong>For</strong> +2, <strong>Dex</strong> +2, <strong>Con</strong> +1, <strong>Int</strong> -4, <strong>Sag</strong> +1, <strong>Cha</strong> +0</p>\n<p><strong>Points de vie</strong> 4</p>\n<p><strong>Compétence</strong> Survival</p>\n<p><strong>Sens</strong> vision nocturne, odorat (imprécis 9 m)</p>\n<p><strong>Vitesse</strong> 9 m</p>\n<p><strong>Spécial</strong> Les compagnons animaux vampiriques sont particulièrement sensibles à l'odeur du sang. Si une créature subit des dégâts de saignement, votre compagnon animal vampirique peut sentir la créature si elle se trouve dans un rayon de 36 m au lieu de 9 m.</p>\n<p><strong>Avantage de soutien</strong> Lorsque votre animal vampirique sent le sang, il déchire vos ennemis. Jusqu'au début de votre prochain tour, les coups qui blessent une créature à la portée de votre animal vampirique infligent également [[/r 1d6[bleed]]]{1d6 dégâts de saignement}. Si votre animal vampirique est agile ou sauvage, les dégâts de saignement passent à 2d6.</p>\n<p><strong>Manœuvre avancée</strong> @Compendium[pf2e-animal-companions.AC-Advanced-Maneuvers.cVrW2GGLVpydj8h5]{Festin sanglant}</p>"
        },
        "Terror Bird": {
            "name": "Terror Bird",
            "description": "<p>Votre compagnon est un oiseau de terreur, une grande espèce de carnivores aviaires qui ne volent pas.</p>\n<p><strong>Taille</strong> Grande</p>\n<p><strong>Corps-à-corps</strong> <span class=\"pf2-icon\">1</span> bec, <strong>Dégâts</strong> 1d8 perforant</p>\n<p><strong>Corps-à-corps</strong> <span class=\"pf2-icon\">1</span> serre (agile), <strong>Dégâts</strong> 1d6 perforants</p>\n<p><strong>For</strong> +3, <strong>Dex</strong> +2, <strong>Con</strong> +2, <strong>Int</strong> -4, <strong>Sag</strong> +1, <strong>Cha</strong> +0</p>\n<p><strong>Points de Vie</strong> 8</p>\n<p><strong>Compétence</strong> Survie</p>\n<p><strong>Sens</strong> vision nocturne</p>\n<p><strong>Vitesse</strong> 12 m</p>\n<p><strong>Spécial</strong> monture</p>\n<p><strong>Avantage de soutien</strong> Votre oiseau de terreur hurle sur vos ennemis lorsque vous créez une ouverture. Jusqu'au début de votre prochain tour, vos Frappes qui infligent des dégâts à une créature à portée de votre oiseau de terreur rendent la cible @UUID[Compendium.pf2e.conditionitems.AJh5ex99aV6VTggg]{Prise au dépourvu} jusqu'au début de votre prochain tour.</p>\n<p><strong>Manœuvre avancée</strong> @Compendium[pf2e-animal-companions.AC-Advanced-Maneuvers.TCEQtO5DawzVAIyT]{Tearing Clutch}</p>"
        },
        "Tyrannosaurus": {
            "name": "Tyrannosaurus",
            "description": "<p>Votre compagnon est un tyrannosaure, un allosaure ou un dinosaure carnivore de grande taille.</p>\n<p><strong>Taille</strong> Grande</p>\n<p><strong>Corps-à-corps</strong> <span class=\"pf2-icon\">1</span> mâchoires, <strong>Dégâts</strong> 1d8 perforants</p>\n<p><strong>Corps-à-corps</strong> <span class=\"pf2-icon\">1</span> pied, <strong>Dégâts</strong> 1d6 contondants</p>\n<p><strong>For</strong> +3, <strong>Dex</strong> +1, <strong>Con</strong> +3, <strong>Int</strong> -4, <strong>Sag</strong> +1, <strong>Cha</strong> +0</p>\n<p><strong>Points de vie</strong> 8</p>\n<p><strong>Compétence</strong> Intimidation</p>\n<p><strong>Sens</strong> vision nocturne, odorat (imprécis, 9 m)</p>\n<p><strong>Vitesse</strong> 10,5 m</p>\n<p><strong>Avantage de soutien</strong> Votre tyrannosaure rugit et fait une démonstration effrayante lorsque vous attaquez, faisant sursauter vos ennemis. Jusqu'au début de votre prochain tour, si vous touchez et infligez des dégâts à une créature qui se trouve à dans l'allonge de votre tyrannosaure, cette dernière est @UUID[Compendium.pf2e.conditionitems.TBSHQspnbcqxsmjL]{Effrayée 1}.</p>\n<p><strong>Manœuvre avancée</strong> @Compendium[pf2e-animal-companions.AC-Advanced-Maneuvers.yXw82Zd5nkcCUfRQ]{Mâchoires refermées}</p>"
        },
        "Cat": {
            "name": "Cat",
            "description": "<p>Votre compagnon est un gros félin, tel qu'un léopard ou un tigre.</p>\n<p><strong>Taille</strong> Petit</p>\n<p><strong>Corps-à-corps</strong> <span class=\"pf2-icon\">1</span> mâchoires (finesse), <strong>Dégâts</strong> 1d6 perforants</p>\n<p><strong>Corps-à-corps</strong> <span class=\"pf2-icon\">1</span> griffe (agile, finesse), <strong>Dégâts</strong> 1d4 tranchants</p>\n<p><strong>For</strong> +2, <strong>Dex</strong> +3, <strong>Con</strong> +1, <strong>Int</strong> -4, <strong>Sag</strong> +2, <strong>Cha</strong> +0</p>\n<p><strong>Points de Vie</strong> 4</p>\n<p><strong>Compétence</strong> Discrétion</p>\n<p><strong>Sens</strong> vision nocturne, odorat (imprécis) 9 m</p>\n<p><strong>Vitesse</strong> 10,5 m</p>\n<p><strong>Spécial</strong> Votre félin inflige 1d4 dégâts de précision supplémentaires contre les cibles Prises au dépourvu.</p>\n<p><strong>Avantage de soutien</strong> Votre félin déséquilibre vos ennemis lorsque vous créez une ouverture. Jusqu'au début de votre prochain tour, vos Frappes qui infligent des dégâts à une créature que votre félin menace rendent la cible @UUID[Compendium.pf2e.conditionitems.AJh5ex99aV6VTggg]{Prises au dépourvu} jusqu'à la fin de votre prochain tour.</p>\n<p><strong>Manœuvre avancée</strong> @Compendium[pf2e-animal-companions.AC-Advanced-Maneuvers.U0J8J5ukmqnOskE8]{Bond du félin}</p>"
        },
        "Zombie Carrion Bird": {
            "name": "Zombie Carrion Bird",
            "description": "<p>Votre compagnon est le cadavre sombifié d'un grand oiseau charognard, tel qu'un vautour ou un corbeau qui subsiste en se nourrissant de viande.</p>\n<p><strong>Taille</strong> Petite</p>\n<p><strong>Corps-à-corps</strong> <span class=\"pf2-icon\">1</span> mâchoires, <strong>Dégâts</strong> 1d8 perforants</p>\n<p><strong>For</strong> +2, <strong>Dex</strong> +1, <strong>Con</strong> +3, <strong>Int</strong> -5, <strong>Sag</strong> +0, <strong>Cha</strong> +0</p>\n<p><strong>Points de vie</strong> 6</p>\n<p><strong>Compétence</strong> aucune (dénué d'intelligence)</p>\n<p><strong>Sens</strong> vision dans le noir</p>\n<p><strong>Vitesse</strong> 3 m, vol 9 m</p>\n<p><strong>Spécial</strong> dénué d'intelligence</p>\n<p><strong>Avantage de soutien</strong> Le zombie émet une aura de pourriture, faisant suppurer les blessures. Jusqu'au début de votre prochain tour, chaque fois que vous touchez et infligez des dégâts à une créature qui se trouve dans un rayon de 3 mètres de l'oiseau charognard zombie, la créature subit 1d6 dégâts supplémentaires tandis que la blessure s'infecte. Si votre charognard est agile ou sauvage, les dégâts passent à [[/r 2d6]]{2d6}. Il s'agit d'un effet de maladie et de nécromancie.</p>\n<p><strong>Manœuvre avancée</strong> @Compendium[pf2e-animal-companions.AC-Advanced-Maneuvers.9o7NwxGqohpa9M7r]{Piquer la viande}</p>"
        },
        "Camel": {
            "name": "Camel",
            "description": "<p>Votre compagnon est un chameau ou un lama.</p>\n<p><strong>Taille</strong> Moyenne ou Grande</p>\n<p><strong>Corps-à-corps</strong> <span class=\"pf2-icon\">1</span> Mâchoires, <strong>Dégâts</strong> 1d6 perforants</p>\n<p><strong>For</strong> +3, <strong>Dex</strong> +2, <strong>Con</strong> +2, <strong>Int</strong> -4, <strong>Sag</strong> +1, <strong>Cha</strong> +0</p>\n<p><strong>Points de vie</strong> 8</p>\n<p><strong>Compétences</strong> Survie</p>\n<p><strong>Sens</strong> vision nocturne, odorat (imprécis) 9 m</p>\n<p><strong>Vitesse</strong> 10,5 m</p>\n<p><strong>Spécial</strong> monture ; votre chameau ignore les effets dommageables de la chaleur ou du froid modéré, sévère ou extrême, élément choisi lorsque vous obtenez le compagnon</p>\n<p><strong>Avantage de soutien</strong> Le chameau porte une attaque à distance de crachat d'un long filet de salive sur un ennemi à 3 m. S'il touche, l'ennemi est @UUID[Compendium.pf2e.conditionitems.TkIyaNPgTZFBCCuh]{Ébloui} pendant 1 round.</p>\n<p><strong>Manœuvre avancée</strong> @Compendium[pf2e-animal-companions.AC-Advanced-Maneuvers.PAXJgysWqv3T0tTD]{Marche sur le sable}</p>"
        },
        "Scorpion": {
            "name": "Scorpion",
            "description": "<p>Votre compagnon est une des diverses espèces de scorpion géant.</p>\n<p><strong>Taille</strong> Petite</p>\n<p><strong>Corps-à-corps</strong> <span class=\"pf2-icon\">1</span> dard, <strong>Dégâts</strong> 1d6 perforants plus poison (voir Spécial)</p>\n<p><strong>Corps-à-corps</strong> <span class=\"pf2-icon\">1</span> pince (agile), <strong>Dégâts</strong> 1d6 tranchants</p>\n<p><strong>For</strong> +3, <strong>Dex</strong> +3, <strong>Con</strong> +1, <strong>Int</strong> -4, <strong>Sag</strong> +1, <strong>Cha</strong> +0</p>\n<p><strong>Points de Vie</strong> 6</p>\n<p><strong>Compétence</strong> Discrétion</p>\n<p><strong>Sens</strong> vision dans le noir</p>\n<p><strong>Vitesse</strong> 9 m</p>\n<p><strong>Spécial</strong> L'attaque de dard du scorpion inflige [[/r {1d4}[poison]]]{1d4 dégâts de poison} supplémentaires ou [[/r {2d4}[poison]]]{2d4 dégâts de poison} si le scorpion est un compagnon spécialisé.</p>\n<p><strong>Avantage de soutien</strong> Votre scorpion fait couler du poison de son dard lorsque vous créez une ouverture. Jusqu'au début de votre prochain tour, vos Frappes qui blessent une créature dans l'allonge de votre scorpion infligent également [[/r {1d6}[persistent,poison]]] @UUID[Compendium.pf2e.conditionitems.lDVqvLKA6eF3Df60]{dégâts persistants de poison}. Si votre scorpion est agile ou sauvage, les dégâts de poison persistants passent à [[/r 2d6]]{2d6}.</p>\n<p><strong>Manœuvre avancée</strong> @Compendium[pf2e-animal-companions.AC-Advanced-Maneuvers.7H8wqKtsAaSgyLyp]{Saisir et piquer}</p>"
        },
        "Pangolin": {
            "name": "Pangolin",
            "description": "<p>Votre compagnon est un pangolin particulièrement grand, tel qu'un ugvashi du Vudra.</p>\n<p><strong>Taille</strong> Moyenne</p>\n<p><strong>Corps-à-corps</strong> <span class=\"pf2-icon\">1</span> corps, <strong>Dégâts</strong> 1d8 contondants</p>\n<p><strong>Corps-à-corps</strong> <span class=\"pf2-icon\">1</span> griffe (agile), <strong>Dégâts</strong> 1d6 tranchants</p>\n<p><strong>For</strong> +3, <strong>Dex</strong> +2, <strong>Con</strong> +2, <strong>Int</strong> -4, <strong>Sag</strong> +1, <strong>Cha</strong> +0</p>\n<p><strong>Points de Vie</strong> 8</p>\n<p><strong>Compétence</strong> Survie</p>\n<p><strong>Sens</strong> vision nocturne</p>\n<p><strong>Vitesse</strong> 7,5 m</p>\n<p><strong>Avantage de soutien</strong> Votre pangolin déchire vos ennemis avec ses plaques dentelées. Jusqu'au début de votre prochain tour, les Frappes qui blessent une créature à la portée de votre pangolin infligent ausi [[/r 1d6[bleed]]]{1d6 dégâts de saignement}. Si votre pangolin est agile ou sauvage, les dégâts de saignement passent à [[/r 2d6]]{2d6}.</p>\n<p><strong>Manœuvre avancée</strong> @Compendium[pf2e-animal-companions.AC-Advanced-Maneuvers.pMPtswKNokDNyYR2]{Posture défensive}</p>"
        },
        "Monitor Lizard": {
            "name": "Monitor Lizard",
            "description": "<p>Votre compagnon est un lézard aux membres trapus et au corps long, presque serpentin.</p>\n<p><strong>Taille</strong> Moyenne</p>\n<p><strong>Corps-à-corps</strong> <span class=\"pf2-icon\">a</span> Mâchoires, <strong>Dégâts</strong> 1d8 perforants</p>\n<p><strong>For</strong> +3, <strong>Dex</strong> +2, <strong>Con</strong> +2, <strong>Int</strong> -4, <strong>Sag</strong> +1, <strong>Cha</strong> +0</p>\n<p><strong>Points de Vie</strong> 8</p>\n<p><strong>Compétence</strong> Survie</p>\n<p><strong>Sens</strong> vision nocture, odorat (imprécis) 9 m</p>\n<p><strong>Vitesse</strong> 9 m</p>\n<p><strong>Spécial</strong> monture</p>\n<p><strong>Avantage de soutien</strong> Le varan distrait un adversaire adjacent avec ses mâchoires claquantes et des mouvements rapides. Jusqu'au début de votre prochain tour, si votre Frappe blesse un adversaire, chaque fois que celui-ci tente une action avec le trait manipulation jusqu'à la fin de votre prochain tour, il doit tenter un test nu DD 5. En cas d'échec, l'action est interrompue.</p>\n<p><strong>Manœuvre avancée</strong> @Compendium[pf2e-animal-companions.AC-Advanced-Maneuvers.uR3j6TAJFeOVUHpY]{Embardée ruante}</p>"
        },
        "Gibtas": {
            "name": "Gibtas",
            "description": "<p>Votre compagnon est un gibtas.</p>\n<p><strong>Taille</strong> Petite</p>\n<p><strong>Corps-à-corps</strong> <span class=\"pf2-icon\">1</span> mâchoires, <strong>Dégâts</strong> 1d8 perforants</p>\n<p><strong>Corps-à-corps</strong> <span class=\"pf2-icon\">1</span> griffe (agile), <strong>Dégâts</strong> 1d6 tranchants</p>\n<p><strong>For</strong> +3, <strong>Dex</strong> +2, <strong>Con</strong> +2, <strong>Int</strong> -4, <strong>Sag</strong> +1, <strong>Cha</strong> +0</p>\n<p><strong>Points de vie</strong> 8</p>\n<p><strong>Compétence</strong> Intimidation</p>\n<p><strong>Sens</strong> vision nocturne, odorat (imprécis, 9 m)</p>\n<p><strong>Vitesse</strong> 10,5 feet</p>\n<p><strong>Avantage de soutien</strong> Votre gibtas malmène vos ennemis lorsque vous créez une ouverture. Jusqu'au début de votre prochain tour, chaque fois que vous touchez une créature à portée du gibtas avec une Frappe, la créature subit [[/r {1d8}[slashing]]]{1d8 dégâts tranchants} du gibtas. Si votre gibtas est agile ou sauvage, les dégâts tranchants passent à 2d8.</p>\n<p><strong>Manœuvre avancée</strong> @Compendium[pf2e-animal-companions.AC-Advanced-Maneuvers.Uv49tQCwUUjaMCj5]{Coup rebondissant}</p>"
        },
        "Skeletal Bird of Prey": {
            "name": "Skeletal Bird of Prey",
            "description": "<p>Votre compagnon est le squelette d'un oiseau de proie comme un faucon ou un hibou.</p>\n<p><strong>Taille</strong> Petit</p>\n<p><strong>Corps-à-corps</strong> <span class=\"pf2-icon\">1</span> mâchoires (finesse), <strong>Dégâts</strong> 1d6 perforants</p>\n<p><strong>Corps-à-corps</strong> <span class=\"pf2-icon\">1</span> serres (agile, finesse), <strong>Dégâts</strong> 1d4 tranchants</p>\n<p><strong>For</strong> +2, <strong>Dex</strong> +3, <strong>Con</strong> +1, <strong>Int</strong> -5, <strong>Sag</strong> +0, <strong>Cha</strong> +0</p>\n<p><strong>Points de vie</strong> 4</p>\n<p><strong>Compétence</strong> aucune (dénué d'intelligence)</p>\n<p><strong>Sens</strong> vision dans le noir</p>\n<p><strong>Vitesse</strong> 3 m, vol 15 m</p>\n<p><strong>Spécial</strong> dénué d'intelligence</p>\n<p><strong>Avantage de soutien</strong> L'oiseau voltige en tous sens et déséquilibre votre adversaire. Jusqu'au début de votre prochain tour, lorsque vous blessez une créature à portée de l'oiseau avec une Frappe, cette créature devient @UUID[Compendium.pf2e.conditionitems.i3OJZU2nk64Df3xm]{Maladroite 1} jusqu'à la fin de votre prochain tour.</p>\n<p><strong>Manœuvre avancée</strong> @Compendium[pf2e-animal-companions.AC-Advanced-Maneuvers.ow3S5zhS51Nj8tsI]{Cri strident}</p>"
        },
        "Elephant": {
            "name": "Elephant",
            "description": "<p>Votre compagnon est un éléphant ou un mammouth.</p>\n<p><strong>Taille</strong> Grande</p>\n<p><strong>Corps-à-corps</strong> <span class=\"pf2-icon\">1</span> défense, <strong>Dégâts</strong> 1d8 perforants</p>\n<p><strong>Corps-à-corps</strong> <span class=\"pf2-icon\">1</span> pied, <strong>Dégâts</strong> 1d6 contondants</p>\n<p><strong>For</strong> +3, <strong>Dex</strong> +1, <strong>Con</strong> +2, <strong>Int</strong> -4, <strong>Sag</strong> +2, <strong>Cha</strong> +0</p>\n<p><strong>Points de vie</strong> 8</p>\n<p><strong>Skill</strong> Intimidation</p>\n<p><strong>Sens</strong> vision nocturne, odorat (imprécis, 9 m)</p>\n<p><strong>Vitesse</strong> 10,5 m</p>\n<p><strong>Spécial</strong> monture</p>\n<p><strong>Avantage de soutien</strong> Votre éléphant barit bruyamment et menace votre ennemi. La première créature dans l'allonge de votre éléphant que vous touchez et à qui vous infligez des dégâts avant le début de votre prochain tour a du mal à entendre car ses oreilles bourdonnent à cause du bruit. Elle subit une pénalité de statut de -4 aux tests de Perception purement auditive jusqu'à la fin de votre prochain tour.</p>\n<p><strong>Manœuvre avancée</strong> @Compendium[pf2e-animal-companions.AC-Advanced-Maneuvers.oYEXImMSzg0eDqzR]{Trompe agrippante}</p>"
        },
        "Cave Gecko": {
            "name": "Cave Gecko",
            "description": "<p>Votre compagnon est un lézard à pattes collantes comme un gecko ou un anoli.</p>\n<p><strong>Taille</strong> Petite</p>\n<p><strong>Corps-à-corps</strong> <span class=\"pf2-icon\">a</span> mâchoires (finesse), <strong>Dégâts</strong> 1d6 perforants</p>\n<p><strong>For</strong> +2, <strong>Dex</strong> +3, <strong>Con</strong> +1, <strong>Int</strong> -4, <strong>Sag</strong> +2, <strong>Cha</strong> +0</p>\n<p><strong>Points de Vie</strong> 6</p>\n<p><strong>Compétence</strong> Discrétion</p>\n<p><strong>Sens</strong> vision nocturne, odorat (imprécis) 9 m</p>\n<p><strong>Vitesse</strong> 7,5 m, escalade 7,5 m</p>\n<p><strong>Avantage de soutien</strong> Votre gecko des cavernes vous aide à rester sur pied, s'appuyant sur vous et vous soutenant lorsque vous manœuvrez votre adversaire. Jusqu'à la fin de votre prochain tour, tant que vous êtes adjacent à votre gecko des cavernes, si vous tentez de désarmer, poussez ou faites un croc-en-jambe à un adversaire et que vous obtenez un échec critique, vous obtenez un échec à la place.</p>\n<p><strong>Manœuvre avancée</strong> @Compendium[pf2e-animal-companions.AC-Advanced-Maneuvers.q0Vh2V6KlzdMi1Pv]{Traction de la langue}</p>"
        },
        "Bear": {
            "name": "Bear",
            "description": "<p>Votre compagnon est un ours noir, un grizzli, un ours polaire ou un autre type d'ours.</p>\n<p><strong>Taille</strong> Petite</p>\n<p><strong>Corps-à-corps</strong> <span class=\"pf2-icon\">1</span> mâchoires, <strong>Dégâts</strong> 1d8 perforants</p>\n<p><strong>Corps-à-corps</strong> <span class=\"pf2-icon\">1</span> griffe (agile), <strong>Dégâts</strong> 1d6 tranchants</p>\n<p><strong>For</strong> +3, <strong>Dex</strong> +2, <strong>Con</strong> +2, <strong>Int</strong> -4, <strong>Sag</strong> +1, <strong>Cha</strong> +0</p>\n<p><strong>Points de Vie</strong> 8</p>\n<p><strong>Compétence</strong> Intimidation</p>\n<p><strong>Sens</strong> vision nocturne, odorat (imprécis) 9 m</p>\n<p><strong>Vitesse</strong> 10,5 m</p>\n<p><strong>Avantage de soutien</strong> Votre ours malmène vos ennemis lorsque vous créez une ouverture. Jusqu'au début de votre prochain tour, chaque fois que vous touchez une créature à portée de l'ours avec une Frappe, la créature subit [[/r {1d8}[slashing]]]{1d8 dégâts tranchants} de la part de l'ours. Si votre ours est agile ou sauvage, les dégâts tranchants passent à [[/r 2d8]]{2d8}.</p>\n<p><strong>Manœuvre avancée</strong> @Compendium[pf2e-animal-companions.AC-Advanced-Maneuvers.oCgdnQP5bMDD02YC]{Étreinte de l'ours}</p>"
        },
        "Cave Pterosaur": {
            "name": "Cave Pterosaur",
            "description": "<p>Votre compagnon est une créature préhistorique volante, tel qu'un dimorphodon ou un ptérodactyle, qui s'est adapté à la vie dans les cavernes sous le sol.</p>\n<p><strong>Taille</strong> Petite</p>\n<p><strong>Corps-à-corps</strong> 1 bec (finesse), <strong>Dégâts</strong> 1d6 perforants</p>\n<p><strong>Corps-à-corps</strong> <span class=\"pf2-icon\">1</span> serre (agile, finesse), <strong>Dégâts</strong> 1d4 tranchants</p>\n<p><strong>For</strong> +2, <strong>Dex</strong> +3, <strong>Con</strong> +1, <strong>Int</strong> -4, <strong>Sag</strong> +2, <strong>Cha</strong> +0</p>\n<p><strong>Points de Vie</strong> 4</p>\n<p><strong>Compétence</strong> Vol</p>\n<p><strong>Sens</strong> Vision dans le noir</p>\n<p><strong>Vitesse</strong> 3 m, Vol 18 m</p>\n<p><strong>Avantage de soutien</strong> Votre ptérosaure étend ses ailes et crée de la distraction avec ses battements d'aile. Toute créature qui pourrait bénéficier d'un abri inférieur de la part du ptérosaure obtient un abri standard à la place.</p>\n<p><strong>Manœuvre avancée</strong> @Compendium[pf2e-animal-companions.AC-Advanced-Maneuvers.7C9iFWBpEOJs4Uo2]{Piqué du ptérosaure}</p>"
        },
        "Vulture": {
            "name": "Vulture",
            "description": "<p>Votre compagnon est un vautour, un condor ou un autre grand oiseau charognard.</p>\n<p><strong>Taille</strong> Petite</p>\n<p><strong>Corps-à-corps</strong> <span class=\"pf2-icon\">1</span> bec (finesse), <strong>Dégâts</strong> 1d8 perforants</p>\n<p><strong>For</strong> +2, <strong>Dex</strong> +2, <strong>Con</strong> +2, <strong>Int</strong> -4, <strong>Sag</strong> +2, <strong>Cha</strong> +0</p>\n<p><strong>Points de Vie</strong> 6</p>\n<p><strong>Compétence</strong> Survie</p>\n<p><strong>Sens</strong> vision nocturne, odorat (imprécis) 9 m</p>\n<p><strong>Vitesse</strong> 3 m, vol 13,5 m</p>\n<p><strong>Spécial</strong> Votre vautour obtient un bonus de statutà tous les jets de sauvegarde contre la maladie et s'il obtient un succès sur un jet de sauvegarde contre une maladie, il obtient le résultat s'un succès critique à la place.</p>\n<p><strong>Avantage de soutien</strong> Le vautour vomit sur un ennemi dans un rayon de 3 mètres. Jusqu'au début de votre prochain tour, si vous touchez et infligez des dégâts à la cible, celle-ci doit réussir un jet de Vigueur ou être @UUID[Compendium.pf2e.conditionitems.fesd1n5eVhpCSS18]{Malade/nauséeuse 1}. (@UUID[Compendium.pf2e.conditionitems.fesd1n5eVhpCSS18]{Malade/nauséeuse 2} sur un échec critique). Le DD du jet de Vigueur est de 12 (ou 14 si le vautour est un compagnon animal spécialisé) + votre niveau + le modificateur de Constitution du vautour.</p>\n<p><strong>Manœuvre avancée</strong> @Compendium[pf2e-animal-companions.AC-Advanced-Maneuvers.g4JEtCnKXyY4LJpm]{Festin sur le déchu}</p>"
        },
        "Skeletal Constrictor": {
            "name": "Skeletal Constrictor",
            "description": "<p>Votre compagnon est le squelette d'un serpent constricteur tel qu'un boa ou un python. Des lumières rouges brillent dans les profondeurs des orbites de ses yeux.</p>\n<p><strong>Taille</strong> Petite</p>\n<p><strong>Corps-à-corps</strong> <span class=\"pf2-icon\">1</span> mâchoires (finesse), <strong>Dégâts</strong> 1d8 perforant</p>\n<p><strong>For</strong> +2, <strong>Dex</strong> +2, <strong>Con</strong> +1, <strong>Int</strong> -5, <strong>Sag</strong> +1, <strong>Cha</strong> +0</p>\n<p><strong>Points de vie</strong> 4</p>\n<p><strong>Compétences</strong> aucune (dénué d'intelligence)</p>\n<p><strong>Sens</strong> vision dans le noir</p>\n<p><strong>Vitesse</strong> 6 m, escalade 6 m, nage 6 m</p>\n<p><strong>Spécial</strong> dénué d'intelligence</p>\n<p><strong>Avantage de soutien</strong> Votre serpent se balance, envoûtant un ennemi. Choisissez une créature dans un rayon de 6 mètres du serpent constricteur qui peut le voir. Jusqu'au début de votre prochain tour, vos Frappes qui infligent des dégâts à la créature choisie rendent la cible @UUID[Compendium.pf2e.conditionitems.AJh5ex99aV6VTggg]{Prise au dépourvu} jusqu'à la fin de votre prochain tour.</p>\n<p><strong>Manœuvre avancée</strong> @Compendium[pf2e-animal-companions.AC-Advanced-Maneuvers.AH3kNbdGLYaRjVAr]{Constriction osseuse}</p>"
        },
        "Zombie Mount": {
            "name": "Zombie Mount",
            "description": "<p>Votre compagnon est le cadavre ranimé et pourrissant d'un cheval, d'un chameau ou d'un autre animal de monte similaire.</p>\n<p><strong>Taille</strong> Grande</p>\n<p><strong>Corps-à-corps</strong> <span class=\"pf2-icon\">1</span> sabot, <strong>Dégâts</strong> 1d8 contondant</p>\n<p><strong>For</strong> +2, <strong>Dex</strong> +1, <strong>Con</strong> +3, <strong>Int</strong> -5, <strong>Sag</strong> +0, <strong>Cha</strong> +0</p>\n<p><strong>Points de vie</strong> 8</p>\n<p><strong>Compétence</strong> aucune (voir Spécial)</p>\n<p><strong>Sens</strong> Vision dans le noir</p>\n<p><strong>Vitesse</strong> 9 m</p>\n<p><strong>Spécial</strong> dénué d'intelligence, monture</p>\n<p><strong>Avantage de soutien</strong> Votre monture zombie ronge vos ennemis. Jusqu'au début de votre prochain tour, chaque fois que vous portez un coup en chevauchant la monture zombie et que vous touchez une créature à portée de la monture zombie, celle-ci subit [[/r {1d4}[bludgeoning]]]{1d4 dégâts contndants} de la part de la monture zombie. Si votre monture zombie est agile ou sauvage, les dégâts contondants passent à [[/r 2d4]]{2d4}. Cet avantage est basé sur un cheval ou un chameau zombie, mais peut infliger des dégâts perforants si votre monture a des dents pointues.</p>\n<p><strong>Manœuvre avancée</strong> @Compendium[pf2e-animal-companions.AC-Advanced-Maneuvers.h1Rldre8WVjUR5XO]{Galop immonde}</p>"
        },
        "Triceratops": {
            "name": "Triceratops",
            "description": "<p>Votre compagnon est un tricératops ou un autre dinosaure cuirrassé. Si nécessaire, changez l'attaque de corne et le type de dégâts pour une attaque mieux appropriée pour le dinosaure (par exemple, un ankylosaure aurait une attaque de queue qui inflige des  dégâts contondants).</p>\n<p><strong>Taille</strong> Grande</p>\n<p><strong>Corps-à-corps</strong> <span class=\"pf2-icon\">1</span> queue,<strong> Dégâts</strong> 1d8 contondants</p>\n<p><strong>Corps-à-corps</strong> <span class=\"pf2-icon\">1</span> pied,<strong> Dégâts</strong> 1d6 contondants</p>\n<p><strong>For</strong> +3, <strong>Dex</strong> +1, <strong>Con</strong> +2, <strong>Int</strong> -4, <strong>Sag</strong> +2, <strong>Cha</strong> +0</p>\n<p><strong>Points de vie</strong> 8</p>\n<p><strong>Compétence</strong> Intimidation</p>\n<p><strong>Sens</strong> vision nocturne, odorat (imprécis, 9 m)</p>\n<p><strong>Vitesse</strong> 7,5 m</p>\n<p><strong>Spécial</strong> monture</p>\n<p><strong>Avantage de soutien</strong> Votre tricératops éventre les cibles @UUID[Compendium.pf2e.conditionitems.Prone]{À terre} dans votre sillage. Jusqu'au début de votre prochain tour, vos frappes qui blessent une créature À terre dans l'allonge de votre ankylosaure infligent également [[/r {1d8}[bleed]]]{1d8 dégâts de saignement}. Si votre tricératops est agile ou sauvage, les dégâts de saignement passent à 2d8.</p>\n<p><strong>Manœuvre avancée</strong> @Compendium[pf2e-animal-companions.AC-Advanced-Maneuvers.H1ElYt6KovGYGzLD]{Renversement boutoir}</p>"
        },
        "Arboreal Sapling": {
            "name": "Arboreal Sapling",
            "description": "<p>Votre compagnon est un arbre qui marche, un cousin des grands gardiens et régents arboréens. Un jeune arboréen possède le trait plante au lieu du trait animal mais il fonctionne normalement comme un compagnon animal. Ils ne sont généralement choisis que par les druides de l'ordre des animaux qui sont également membres de l'ordre de la feuille.</p>\n<p><strong>Accès</strong> Vous êtes un membre de l'ordre de la feuille.</p>\n<p><strong>taille</strong> Petite</p>\n<p><strong>Corps-à-corps</strong> <span class=\"pf2-icon\">1</span> branche, <strong>Dégâts</strong> 1d8 contondants</p>\n<p><strong>For</strong> +3, <strong>Dex</strong> +1, <strong>Con</strong> +2, <strong>Int</strong> -4, <strong>Sag</strong> +2, <strong>Cha</strong> +0</p>\n<p><strong>Points de Vie</strong> 8</p>\n<p><strong>Compétence</strong> Discrétion</p>\n<p><strong>Sens</strong> vision nocturne</p>\n<p><strong>Vitesse</strong> 7,5 m</p>\n<p><strong>Avantage de soutien</strong> Votre jeune arboréen plante des racines autour de votre ennemi, entravant son mouvement. Jusqu'au début de votre prochain tour, si vous touchez et infligez des dégâts à une créature à portée du jeune arboréen, la première case dans laquelle la créature se déplace après avoir subi ces dégâts est un terrain difficile.</p>\n<p><strong>Advanced Maneuver</strong> @Compendium[pf2e-animal-companions.AC-Advanced-Maneuvers.FKh7ZMNyKxgnV7kI]{Lancer de rocher}</p>"
        },
        "Blood Wolf": {
            "name": "Blood Wolf",
            "description": "<p>Votre compagnon est un loup de sang partiellement transformé.</p>\n<p><strong>Taille</strong> Petite</p>\n<p><strong>Corps-à-corps</strong> <span class=\"pf2-icon\">1</span> mâchoires (finesse), <strong>Dégâts</strong> 1d8 perforants</p>\n<p><strong>For</strong> +2, <strong>Dex</strong> +3, <strong>Con</strong> +2, <strong>Int</strong> -4, <strong>Sag</strong> +1, <strong>Cha</strong> +0</p>\n<p><strong>Points de Vie</strong> 8</p>\n<p><strong>Compétence</strong> Intimidation</p>\n<p><strong>Sens</strong> vision dans le noir, odorat (imprécis) 9 m</p>\n<p><strong>Vitesse</strong> 12 m</p>\n<p><strong>Avantage de soutien</strong> Votre loup déchire les tendons à chaque ouverture. Jusqu'au début de votre prochain tour, vos Frappent qui blessent les créatures que votre loup menace donnent à la cible une pénalité de statut de -1,5 m à ses vitesses pendant 1 minute. (-3 msur un succès critique).</p>\n<p><strong>Manœuvre avancé</strong> @Compendium[pf2e-animal-companions.AC-Advanced-Maneuvers.xssFjTXqGlsaddvl]{Renversement}</p>"
        },
        "Ankylosaurus": {
            "name": "Ankylosaurus",
            "description": "<p>Votre compagnon est un ankylosaure ou un autre dinosaure cuirassé.</p>\n<p><strong>Taille</strong> Grande</p>\n<p><strong>Corps-à-corps</strong> <span class=\"pf2-icon\">1</span> queue,<strong> Dégâts</strong> 1d8 contondant</p>\n<p><strong>Corps-à-corps</strong> <span class=\"pf2-icon\">1</span> pied,<strong> Dégâts</strong> 1d6 contondants</p>\n<p><strong>For</strong> +3, <strong>Dex</strong> +1, <strong>Con</strong> +2, <strong>Int</strong> -4, <strong>Sag</strong> +2, <strong>Cha</strong> +0</p>\n<p><strong>Points de vie</strong> 8</p>\n<p><strong>Compétence</strong> Intimidation</p>\n<p><strong>Sens</strong> vision nocturne, odorat (imprécis, 9 m)</p>\n<p><strong>Vitesse</strong> 7,5 m</p>\n<p><strong>Spécial</strong> monture</p>\n<p><strong>Avantage de soutien</strong> Votre ankylosaure éventre les cibles @UUID[Compendium.pf2e.conditionitems.Prone]{À terre} dans votre sillage. Jusqu'au début de votre prochain tour, vos frappes qui blessent une créature À terre dans l'allonge de votre ankylosaure infligent également [[/r 1d8[bleed]]]{1d8 dégâts de saignement}. Si votre ankylosaure est agile ou sauvage, les dégâts de saignement passent à 2d8.</p>\n<p><strong>Manœuvre avancée</strong> @Compendium[pf2e-animal-companions.AC-Advanced-Maneuvers.H1ElYt6KovGYGzLD]{Renversement boutoir}</p>\n<hr />\n<p><em>Note : Cette version alternative du tricératops est fournie par le module. Elle se voit accordé l'avantage de soutien du tricératops et sa manœuvre avancée</em></p>"
        },
        "Riding Drake": {
            "name": "Riding Drake",
            "description": "<p>Votre compagnon est un drake rapide, incapable de voler et doté d'une intelligence limitée, moins vicieux que la plupart des drakes mais qui vous est farouchement loyal. Un drake de monte possède le trait dragon au lieu du trait animal, mais il fonctionne comme un compagnon animal ordinaire.</p>\n<p><strong>Taille</strong> Grande</p>\n<p><strong>Corps-à-corps</strong> <span class=\"pf2-icon\">1</span> mâchoires, <strong>Dégâts</strong> 1d8 perforants</p>\n<p><strong>Corps-à-corps</strong> <span class=\"pf2-icon\">1</span> queue, <strong>Dégâts</strong> 1d6 contondants</p>\n<p><strong>For</strong> +2, <strong>Dex</strong> +1, <strong>Con</strong> +2, <strong>Int</strong> -4, <strong>Sag</strong> +1, <strong>Cha</strong> +2</p>\n<p><strong>Points de Vie</strong> 8</p>\n<p><strong>Compétence</strong> Intimidation</p>\n<p><strong>Sens</strong> vision dans le noir</p>\n<p><strong>Vitesse</strong> 13,5 m</p>\n<p><strong>Spécial</strong> monture</p>\n<p><strong>Avantage de soutien</strong> Votre drake crache du feu au visage de vos adversaires. Jusqu'au début de votre prochain tour, chaque fois que vous faites une Frappe pendant que vous Montez le drake et que vous touchez une créature à portée du drake, celle-ci subit [[/r {1d4}[fire]]]{1d4 dégâts de feu} de la part du drake. Si votre drake est agile ou sauvage, les dégâts de feu augmentent à [[/r 2d4]]{2d4}.</p>\n<p><strong>Manœuvre avancée</strong> @Compendium[pf2e-animal-companions.AC-Advanced-Maneuvers.8JdETVTpbZAgtBA3]{Arme de souffle}</p>"
        },
        "Beetle": {
            "name": "Beetle",
            "description": "<p>Votre compagnon animal est un grand coléoptère sans aile géant.</p>\n<p><strong>Taille</strong> Moyenne ou Grande</p>\n<p><strong>Corps-à-corps</strong> <span class=\"pf2-icon\">1</span> mandibule, <strong>Dégâts</strong> 1d8 perforants</p>\n<p><strong>Corps-à-corps</strong> <span class=\"pf2-icon\">1</span> pied (agile), <strong>Dégâts</strong> 1d6 contondants</p>\n<p><strong>For</strong> +3, <strong>Dex</strong> +1, <strong>Con</strong> +3, <strong>Int</strong> -4, <strong>Sag</strong> +1, <strong>Cha</strong> +0</p>\n<p><strong>Points de Vie</strong> 8</p>\n<p><strong>Compétence</strong> Survie</p>\n<p><strong>Sens</strong> vision nocturne</p>\n<p><strong>Vitesse</strong> 7,5 m</p>\n<p><strong>Spécial</strong> monture</p>\n<p><strong>Avantage de soutien</strong> Votre scarabée se déplace en trépignant et percute les ennemis, les déséquilibrant ou les repoussant sur le côté lorsque vous créez une ouverture. Jusqu'au début de votre prochain tour, lorsque vous Montez sur votre scarabée, vos Frappes qui infligent des dégâts rendent la cible @UUID[Compendium.pf2e.conditionitems.AJh5ex99aV6VTggg]{Prises au dépourvu} jusqu'à la fin de votre prochain tour ou éloignent la cible à 1,5 m du scarabée (c'est un déplacement forcé). La cible choisit l'effet qui se produit.</p>\n<p><strong>Manœuvre avancée</strong> @Compendium[pf2e-animal-companions.AC-Advanced-Maneuvers.zSlsnbvsGKdCTzL1]{Hustle}</p>"
        },
        "Horse": {
            "name": "Horse",
            "description": "<p>Votre compagnon est un cheval, un poney ou un équidé similaire.</p>\n<p><strong>Taille</strong> Moyenne ou Grande</p>\n<p><strong>Corps-à-corps</strong> <span class=\"pf2-icon\">1</span> sabot (agile), <strong>Dégâts</strong> 1d6 contondants</p>\n<p><strong>For</strong> +3, <strong>Dex</strong> +2, <strong>Con</strong> +2, <strong>Int</strong> -4, <strong>Sag</strong> +1, <strong>Cha</strong> +0</p>\n<p><strong>Points de Vie</strong> 8</p>\n<p><strong>Compétence</strong> Survie</p>\n<p><strong>Sens</strong> vision nocturne, odroat (imprécis) 9 m</p>\n<p><strong>Vitesse</strong> 12 m</p>\n<p><strong>Spécial</strong> monture</p>\n<p><strong>Avantage de soutien</strong> Votre cheval ajoute de l'élan à votre charge. Jusqu'au début de votre prochain tour, si vous vous déplacez d'au moins 3 m lors de l'action avant que vous n'attaquiez, ajoutez un bonus de circonstances aux dégâts à cette attaque égal à deux fois le nombre de dés de dégâts. Si votre arme a déjà le trait d'arme joute, augmentez le bonus aux dégâts de 2 par dé à la place.</p>\n<p><strong>Advanced Maneuver</strong> @Compendium[pf2e-animal-companions.AC-Advanced-Maneuvers.tsOaXTRWQvsKTyaL]{Galop}</p>"
        },
        "Hyena": {
            "name": "Hyena",
            "description": "<p>Votre compagnon est une hyène.</p>\n<p><strong>Taille</strong> Petite</p>\n<p><strong>Corps-à-corps</strong> <span class=\"pf2-icon\">1</span> mâchoires (finesse), <strong>Dégâts</strong> 1d8 perforants</p>\n<p><strong>For</strong> +2, <strong>Dex</strong> +3, <strong>Con</strong> +2, <strong>Int</strong> -4, <strong>Sag</strong> +1, <strong>Cha</strong> +0</p>\n<p><strong>Points de Vie</strong> 6</p>\n<p><strong>Compétence</strong> Intimidation</p>\n<p><strong>Sens</strong> vision nocturne, odorat (imprécis) 9 m</p>\n<p><strong>Vitesse</strong> 12 m</p>\n<p><strong>Avantage de soutien</strong> La hyène se moque de vos ennemis en glapissant et les mord lorsque vous créez une ouverture. Jusqu'au début de votre prochain tour, chaque fois que vous touchez une créature à portée de la hyène avec une Frappe, la créature devient @UUID[Compendium.pf2e.conditionitems.TBSHQspnbcqxsmjL]{Effrayée 1}.</p>\n<p><strong>Manœuvre avancée</strong> @Compendium[pf2e-animal-companions.AC-Advanced-Maneuvers.oisXYTTYE0TABboA]{Ronger}</p>"
        },
        "Zombie": {
            "name": "Zombie",
            "description": "<p>Votre compagnon est un zombie dénué d'intelligence créé à partir du corps décédé sans âme, d'un animal ou d'un humanoïde. Les caractéristiques ci-dessous comprennent une frappe de point mais elle peut être remplacée par une griffe ou une option correspondant mieux à la forme de la créature.</p>\n<p><strong>Taille</strong> Petite ou Moyenne</p>\n<p><strong>Corps-à-corps</strong> <span class=\"pf2-icon\">1</span> poing, <strong>Dégâts</strong> 1d8 perforants</p>\n<p><strong>For</strong> +2, <strong>Dex</strong> +0, <strong>Con</strong> +4, <strong>Int</strong> -5, <strong>Sag</strong> +0, <strong>Cha</strong> +0</p>\n<p><strong>Points de vie</strong> 10</p>\n<p><strong>Compétence</strong> aucune (dénué d'intelligence)</p>\n<p><strong>Sens</strong> vision dans le noir</p>\n<p><strong>Vitesse</strong> 6 m</p>\n<p><strong>Spécial</strong> @Compendium[pf2e-animal-companions.AC-Features.CSBy1IgHTSkVAFMM]{Compagnon dénué d'intelligence}</p>\n<p><strong>Avantage de soutien</strong> Le zombie émet une aura de pourriture, faisant suppurer les blessures. Jusqu'au début de votre prochain tour, chaque fois que vous touchez une créature qui se trouve dans un rayon de 3 mètres du zombie et que vous lui infligez des dégâts, la créature subit 1d6 points de dégâts supplémentaires car la blessure s'envenime. Si votre zombie est agile ou sauvage, les dégâts passent à 2d6. Il s'agit d'un effet de maladie et de nécromancie.</p>\n<p><strong>Manœuvre avancée</strong> @Compendium[pf2e-animal-companions.AC-Advanced-Maneuvers.LaBfTYUsvoI3nscv]{Goûte un morceau}</p>"
        },
        "Badger": {
            "name": "Badger",
            "description": "<p>Votre compagnon est un blaireau, un glouton ou un autre mustélidé.</p>\n<p><strong>Taille</strong> Petite</p>\n<p><strong>Corps-à-corps</strong> <span class=\"pf2-icon\">1</span> mâchoires, <strong>Dégâts</strong> 1d8 perforants</p>\n<p><strong>Corps-à-corps</strong> <span class=\"pf2-icon\">1</span> griffe (agile), <strong>Dégâts</strong> 1d6 tranchants</p>\n<p><strong>For</strong> +2, <strong>Dex</strong> +2, <strong>Con</strong> +2, <strong>Int</strong> -4, <strong>Sag</strong> +2, <strong>Cha</strong> +0</p>\n<p><strong>Points de Vie</strong> 8</p>\n<p><strong>Compétence</strong> Survie</p>\n<p><strong>Sens</strong> vision nocturne, odorat (imprécis) 9 m</p>\n<p><strong>Vitesse</strong> 7,5 m, creuser 3 m, escalader 3 m</p>\n<p><strong>Avantage de soutien</strong> Votre blaireau creuse autour de la position de votre ennemi, gênant son pied. Jusqu'au début de votre prochain tour, si vous touchez et infligez des dégâts à une créature que votre blaireau menace, la cible ne peut pas utiliser une action de Pas (sauf si elle peut traverser un terrain difficile) jusqu'à ce qu'elle se déplace de sa position actuelle.</p>\n<p><strong>Manœuvre avancée</strong> @Compendium[pf2e-animal-companions.AC-Advanced-Maneuvers.HLD4JW6SUn5Oy8C9]{Rage du blaireau}</p>"
        },
        "Skeletal Mount": {
            "name": "Skeletal Mount",
            "description": "<p>Votre compagnon est un cheval, un daim, un élan ou un autre animal squelettique adapté à l'équitation. Les montures squelettiques peuvent être démontées, rassemblées en un tas d'os et rangées pour être stockées.</p>\n<p><strong>Taille</strong> Grande</p>\n<p><strong>Corps-à-corps</strong> <span class=\"pf2-icon\">1</span> sabot (agile), <strong>Dégâts</strong> 1d6 contondants</p>\n<p><strong>For</strong> +2, <strong>Dex</strong> +2, <strong>Con</strong> +2, <strong>Int</strong> -5, <strong>Sag</strong> +0, <strong>Cha</strong> +0</p>\n<p><strong>Points de vie</strong> 4</p>\n<p><strong>Compétence</strong> aucune (dénué d'intelligence)</p>\n<p><strong>Sens</strong> vision dans le noir</p>\n<p><strong>Vitesse</strong> 10,5 m</p>\n<p><strong>Spécial</strong> @Compendium[pf2e-animal-companions.AC-Features.CSBy1IgHTSkVAFMM]{Compagnon dénué d'intelligence}, monture</p>\n<p><strong>Avantage de soutien</strong> Votre monture squelettique fait peur lorsqu'elle charge. Jusqu'au début de votre prochain tour, si vous chevauchez votre monture squelettique et que vous vous déplacez d'au moins 10 pieds sur l'action précédant votre attaque, toute créature blessée par l'attaque devient @UUID[Compendium.pf2e.conditionitems.TBSHQspnbcqxsmjL]{Effrayée 1} ou @UUID[Compendium.pf2e.conditionitems.TBSHQspnbcqxsmjL]{Effrayée 2} si l'attaque est un coup critique. C'est un effet d'émotion, de terreur et mental.</p>\n<p><strong>Manœuvre avancée</strong> @Compendium[pf2e-animal-companions.AC-Advanced-Maneuvers.tsOaXTRWQvsKTyaL]{Galop}</p>"
        },
        "Bat": {
            "name": "Bat",
            "description": "<p>Votre compagnon est une chauve-souris particulièrement grande comme une chauve souris-géante.</p>\n<p><strong>Taille</strong> Petite</p>\n<p><strong>Corps-à-corps</strong> <span class=\"pf2-icon\">1</span> mâchoires (finesse), <strong>Dégâts</strong> 1d6 perforants</p>\n<p><strong>Corps-à-corps</strong> <span class=\"pf2-icon\">1</span> aile (agile, finesse), <strong>Dégâts</strong> 1d4 tranchants</p>\n<p><strong>For</strong> +2, <strong>Dex</strong> +3, <strong>Con</strong> +2, <strong>Int</strong> -4, <strong>Sag</strong> +1, <strong>Cha</strong> +0</p>\n<p><strong>Points de Vie</strong> 6</p>\n<p><strong>Compétence</strong> Discrétion</p>\n<p><strong>Sens</strong> écholocalisation 6 m (la chauve-souris peut utiliser son audition comme un sens précis à cette portée), vision nocturne</p>\n<p><strong>Vitesse</strong> 4,5 m, vol 9 m</p>\n<p><strong>Avantage de soutien</strong> Votre chauve-souris vole autour des bras et des visages de vos ennemis, gênant leurs attaques. Jusqu'au début de votre prochain tour, les créatures à portée de votre chauve-souris que vous blessez avec des frappes subissent une pénalité de circonstances de -1 à leurs jets d'attaque.</p>\n<p><strong>Manœuvre avancée</strong> @Compendium[pf2e-animal-companions.AC-Advanced-Maneuvers.ODGf6brAHHKrSAPo]{Frappe violente d'aile}</p>"
        },
        "Boar": {
            "name": "Boar",
            "description": "<p>Votre compagnon est un sanglier ou un cochon.</p>\n<p><strong>Taille</strong> Petite</p>\n<p><strong>Corps-à-corps</strong> <span class=\"pf2-icon\">1</span> défense, <strong>Dégâts</strong> 1d8 perforants</p>\n<p><strong>For</strong> +3, <strong>Dex</strong> +1, <strong>Con</strong> +2, <strong>Int</strong> -4, <strong>Sag</strong> +2, <strong>Cha</strong> +0</p>\n<p><strong>Points de Vie</strong> 8</p>\n<p><strong>Compétence</strong> Survie</p>\n<p><strong>Sens</strong> vision nocturne, odorat (imprécis) 9 m</p>\n<p><strong>Vitesse</strong> 10,5 m</p>\n<p><strong>Avantage de soutien</strong> Votre sanglier éventre vos ennemis. Jusqu'au début de votre prochain tour, vos Frappes qui blessent une créature à portée de votre sanglier infligent aussi [[/r 1d6[bleed]]]{1d6 dégâts de saignement}. Si votre sanglier est agile ou sauvage, les dégâts de saignement  passent à [[/r 2d6]]{2d6}.</p>\n<p><strong>Manœuvre avancée</strong> @Compendium[pf2e-animal-companions.AC-Advanced-Maneuvers.EwCqdvU8WOw2SSxm]{Charge du sanglier}</p>"
        },
        "Water Wraith": {
            "name": "Water Wraith",
            "description": "<p>Votre compagnon est une âme-en-peine aquatique, un lézard amphibie et expressif capable de changer la couleur de ses écailles à sa guise. Bien que votre compagnon n'ait pas encore atteint sa pleine force et son intelligence, il vous sert toujours avec une ténacité et une loyauté admirables, sans parler de sa bouche de lamproie aux dents lacérantes et de ses huit pattes griffues et tranchantes.</p>\n<p><strong>Taille</strong> Petite</p>\n<p><strong>Compétence</strong> Survie</p>\n<p><strong>For</strong> +3, <strong>Dex</strong> +2, <strong>Con</strong> +2, <strong>Int</strong> +4, <strong>Sag</strong> +1, <strong>Cha</strong> +0 <strong>PV</strong> 6</p>\n<p><strong>Vitesse</strong> 6 m, nage 7,5 m</p>\n<p><strong>Corps-à-corps</strong> <span class=\"pf2-icon\">1</span> mâchoires, <strong>Dégâts</strong> 1d8 perforants</p>\n<p><strong>Corps-à-corps</strong> <span class=\"pf2-icon\">1</span> griffe (agile), <strong>Dégâts</strong> 1d6 tranchants</p>\n<p><strong>Spécial</strong> The water wraith can hold its breath for about 2&nbsp;hours.</p>\n<p><strong>Avantage de soutien</strong> Votre âme-en-peine aquatique siffle et change rapidement de couleur dans un fracas irisé, submergeant vos ennemis dans une avalanche de nuances et de teintes. Jusqu'au début de votre prochain tour, chaque fois que vous touchez une créature à portée de votre âme-en-peine aquatique, celle-ci est @UUID[Compendium.pf2e.conditionitems.TkIyaNPgTZFBCCuh]{Éblouie} pendant 1 round.</p>\n<p><strong>Manœuvre avancée</strong> Gorgée de sang</p>"
        },
        "Skeletal Servant": {
            "name": "Skeletal Servant",
            "description": "<p>Votre compagnon est un squelette humanoïde, dénué d'intelligence mais capable d'aider aux tâches rudimentaires. Il peut être démonté, réuni en un tas d'os pour être facilement rangé.</p>\n<p><strong>Taille</strong> Petit ou Moyen</p>\n<p><strong>Corps-à-corps</strong> <span class=\"pf2-icon\">1</span> Mâchoires, <strong>Dégâts</strong> 1d8 perforants</p>\n<p><strong>Corps-à-corps</strong> <span class=\"pf2-icon\">1</span> griffe (agile), <strong>Dégâts</strong> 1d6 tranchants</p>\n<p><strong>For</strong> +2, <strong>Dex</strong> +2, <strong>Con</strong> +1, <strong>Int</strong> -5, <strong>Sag</strong> +0, <strong>Cha</strong> +1</p>\n<p><strong>Points de vie</strong> 4</p>\n<p><strong>Compétence</strong> aucune (dénué d'intelligence)</p>\n<p><strong>Sens</strong> vision dans le noir</p>\n<p><strong>Vitesse</strong> 6 m</p>\n<p><strong>Spécial</strong> @Compendium[pf2e-animal-companions.AC-Features.CSBy1IgHTSkVAFMM]{Compagnon dénué d'intelligence}</p>\n<p><strong>Avantage de soutien</strong> Votre serviteur squelettique plante des os dans vos ennemis pour les distraire pendant que vous attaquez. Jusqu'au début de votre prochain tour, lorsqu'un coup que vous portez touche et inflige des dégâts à une créature qui se trouve à portée de votre serviteur squelettique, cette cible devient @UUID[Compendium.pf2e.conditionitems.AJh5ex99aV6VTggg]{Prise au dépourvu} jusqu'à la fin de votre prochain tour.</p>\n<p><strong>Manœuvre avancée</strong> @Compendium[pf2e-animal-companions.AC-Advanced-Maneuvers.6LvtdtVVwtbzqUXG]{Crâne hurlant}</p>"
        },
        "Moth": {
            "name": "Moth",
            "description": "<p>Votre compagnon animal est un papillon de nuit géant mangeur de fruit avec une trompe capable de percer la peau.</p>\n<p><strong>Taille</strong> Petite</p>\n<p><strong>Corps-à-corps</strong> <span class=\"pf2-icon\">1</span> Trompe (finesse), <strong>Dégâts</strong> 1d6 perforants</p>\n<p><strong>For</strong> +2, <strong>Dex</strong> +3, <strong>Con</strong> +1, <strong>Int</strong> -4, <strong>Sag</strong> +2, <strong>Cha</strong> +0</p>\n<p><strong>Points de Vie</strong> 6</p>\n<p><strong>Compétence</strong> Discrétion</p>\n<p><strong>Sens</strong> vision dans le noir, odorat (imprécis) 9 m</p>\n<p><strong>Vitesse</strong> 4,5 m, vol 9 m</p>\n<p><strong>Spécial</strong> Votre papillon de nuit est invisible contre l'écholocalisation.</p>\n<p><strong>Avantage de soutien</strong> Votre papillon de nuit libère une pluie de poussière pour révéler la présence de vos ennemis. Jusqu'au début de votre prochain tour, si vous blessez une créature @UUID[Compendium.pf2e.conditionitems.DmAIPqOBomZ7H95W]{Masquée} ou @UUID[Compendium.pf2e.conditionitems.iU0fEDdBp3rXpTMC]{Cachée} à portée de votre papillon de nuit avec une Frappe, cette créature ne nécessite qu'un @Check[type:flat|dc:3|name:Test créature masquée|showDC:all]{Test nu} DD 3 pour être ciblée si elle est masquée ou un @Check[type:flat|dc:3|name:Test créature cachée|showDC:all]{Test nu} DD 9 si elle est cachée. Le DD ainsi réduit perdure jusqu'au début de votre prochain tour.</p>\n<p><strong>Manœuvre avancée</strong> @Compendium[pf2e-animal-companions.AC-Advanced-Maneuvers.WdTzlCO2i4loeYkQ]{Cri ultrasonique}</p>"
        }
    },
    "mapping": {
        "description": "system.description.value"
    }
}